{ "country": [
  {"CodeLongDescription": "Afghanistan", "CodeName": "AF"}, 
  {"CodeLongDescription": "Åland Islands", "CodeName": "AX"}, 
  {"CodeLongDescription": "Albania", "CodeName": "AL"}, 
  {"CodeLongDescription": "Algeria", "CodeName": "DZ"}, 
  {"CodeLongDescription": "American Samoa", "CodeName": "AS"}, 
  {"CodeLongDescription": "AndorrA", "CodeName": "AD"}, 
  {"CodeLongDescription": "Angola", "CodeName": "AO"}, 
  {"CodeLongDescription": "Anguilla", "CodeName": "AI"}, 
  {"CodeLongDescription": "Antarctica", "CodeName": "AQ"}, 
  {"CodeLongDescription": "Antigua and Barbuda", "CodeName": "AG"}, 
  {"CodeLongDescription": "Argentina", "CodeName": "AR"}, 
  {"CodeLongDescription": "Armenia", "CodeName": "AM"}, 
  {"CodeLongDescription": "Aruba", "CodeName": "AW"}, 
  {"CodeLongDescription": "Australia", "CodeName": "AU"}, 
  {"CodeLongDescription": "Austria", "CodeName": "AT"}, 
  {"CodeLongDescription": "Azerbaijan", "CodeName": "AZ"}, 
  {"CodeLongDescription": "Bahamas", "CodeName": "BS"}, 
  {"CodeLongDescription": "Bahrain", "CodeName": "BH"}, 
  {"CodeLongDescription": "Bangladesh", "CodeName": "BD"}, 
  {"CodeLongDescription": "Barbados", "CodeName": "BB"}, 
  {"CodeLongDescription": "Belarus", "CodeName": "BY"}, 
  {"CodeLongDescription": "Belgium", "CodeName": "BE"}, 
  {"CodeLongDescription": "Belize", "CodeName": "BZ"}, 
  {"CodeLongDescription": "Benin", "CodeName": "BJ"}, 
  {"CodeLongDescription": "Bermuda", "CodeName": "BM"}, 
  {"CodeLongDescription": "Bhutan", "CodeName": "BT"}, 
  {"CodeLongDescription": "Bolivia", "CodeName": "BO"}, 
  {"CodeLongDescription": "Bosnia and Herzegovina", "CodeName": "BA"}, 
  {"CodeLongDescription": "Botswana", "CodeName": "BW"}, 
  {"CodeLongDescription": "Bouvet Island", "CodeName": "BV"}, 
  {"CodeLongDescription": "Brazil", "CodeName": "BR"}, 
  {"CodeLongDescription": "British Indian Ocean Territory", "CodeName": "IO"}, 
  {"CodeLongDescription": "Brunei Darussalam", "CodeName": "BN"}, 
  {"CodeLongDescription": "Bulgaria", "CodeName": "BG"}, 
  {"CodeLongDescription": "Burkina Faso", "CodeName": "BF"}, 
  {"CodeLongDescription": "Burundi", "CodeName": "BI"}, 
  {"CodeLongDescription": "Cambodia", "CodeName": "KH"}, 
  {"CodeLongDescription": "Cameroon", "CodeName": "CM"}, 
  {"CodeLongDescription": "Canada", "CodeName": "CA"}, 
  {"CodeLongDescription": "Cape Verde", "CodeName": "CV"}, 
  {"CodeLongDescription": "Cayman Islands", "CodeName": "KY"}, 
  {"CodeLongDescription": "Central African Republic", "CodeName": "CF"}, 
  {"CodeLongDescription": "Chad", "CodeName": "TD"}, 
  {"CodeLongDescription": "Chile", "CodeName": "CL"}, 
  {"CodeLongDescription": "China", "CodeName": "CN"}, 
  {"CodeLongDescription": "Christmas Island", "CodeName": "CX"}, 
  {"CodeLongDescription": "Cocos (Keeling) Islands", "CodeName": "CC"}, 
  {"CodeLongDescription": "Colombia", "CodeName": "CO"}, 
  {"CodeLongDescription": "Comoros", "CodeName": "KM"}, 
  {"CodeLongDescription": "Congo", "CodeName": "CG"}, 
  {"CodeLongDescription": "Congo, The Democratic Republic of the", "CodeName": "CD"}, 
  {"CodeLongDescription": "Cook Islands", "CodeName": "CK"}, 
  {"CodeLongDescription": "Costa Rica", "CodeName": "CR"}, 
  {"CodeLongDescription": "Cote D\"Ivoire", "CodeName": "CI"}, 
  {"CodeLongDescription": "Croatia", "CodeName": "HR"}, 
  {"CodeLongDescription": "Cuba", "CodeName": "CU"}, 
  {"CodeLongDescription": "Cyprus", "CodeName": "CY"}, 
  {"CodeLongDescription": "Czech Republic", "CodeName": "CZ"}, 
  {"CodeLongDescription": "Denmark", "CodeName": "DK"}, 
  {"CodeLongDescription": "Djibouti", "CodeName": "DJ"}, 
  {"CodeLongDescription": "Dominica", "CodeName": "DM"}, 
  {"CodeLongDescription": "Dominican Republic", "CodeName": "DO"}, 
  {"CodeLongDescription": "Ecuador", "CodeName": "EC"}, 
  {"CodeLongDescription": "Egypt", "CodeName": "EG"}, 
  {"CodeLongDescription": "El Salvador", "CodeName": "SV"}, 
  {"CodeLongDescription": "Equatorial Guinea", "CodeName": "GQ"}, 
  {"CodeLongDescription": "Eritrea", "CodeName": "ER"}, 
  {"CodeLongDescription": "Estonia", "CodeName": "EE"}, 
  {"CodeLongDescription": "Ethiopia", "CodeName": "ET"}, 
  {"CodeLongDescription": "Falkland Islands (Malvinas)", "CodeName": "FK"}, 
  {"CodeLongDescription": "Faroe Islands", "CodeName": "FO"}, 
  {"CodeLongDescription": "Fiji", "CodeName": "FJ"}, 
  {"CodeLongDescription": "Finland", "CodeName": "FI"}, 
  {"CodeLongDescription": "France", "CodeName": "FR"}, 
  {"CodeLongDescription": "French Guiana", "CodeName": "GF"}, 
  {"CodeLongDescription": "French Polynesia", "CodeName": "PF"}, 
  {"CodeLongDescription": "French Southern Territories", "CodeName": "TF"}, 
  {"CodeLongDescription": "Gabon", "CodeName": "GA"}, 
  {"CodeLongDescription": "Gambia", "CodeName": "GM"}, 
  {"CodeLongDescription": "Georgia", "CodeName": "GE"}, 
  {"CodeLongDescription": "Germany", "CodeName": "DE"}, 
  {"CodeLongDescription": "Ghana", "CodeName": "GH"}, 
  {"CodeLongDescription": "Gibraltar", "CodeName": "GI"}, 
  {"CodeLongDescription": "Greece", "CodeName": "GR"}, 
  {"CodeLongDescription": "Greenland", "CodeName": "GL"}, 
  {"CodeLongDescription": "Grenada", "CodeName": "GD"}, 
  {"CodeLongDescription": "Guadeloupe", "CodeName": "GP"}, 
  {"CodeLongDescription": "Guam", "CodeName": "GU"}, 
  {"CodeLongDescription": "Guatemala", "CodeName": "GT"}, 
  {"CodeLongDescription": "Guernsey", "CodeName": "GG"}, 
  {"CodeLongDescription": "Guinea", "CodeName": "GN"}, 
  {"CodeLongDescription": "Guinea-Bissau", "CodeName": "GW"}, 
  {"CodeLongDescription": "Guyana", "CodeName": "GY"}, 
  {"CodeLongDescription": "Haiti", "CodeName": "HT"}, 
  {"CodeLongDescription": "Heard Island and Mcdonald Islands", "CodeName": "HM"}, 
  {"CodeLongDescription": "Holy See (Vatican City State)", "CodeName": "VA"}, 
  {"CodeLongDescription": "Honduras", "CodeName": "HN"}, 
  {"CodeLongDescription": "Hong Kong", "CodeName": "HK"}, 
  {"CodeLongDescription": "Hungary", "CodeName": "HU"}, 
  {"CodeLongDescription": "Iceland", "CodeName": "IS"}, 
  {"CodeLongDescription": "India", "CodeName": "IN"}, 
  {"CodeLongDescription": "Indonesia", "CodeName": "ID"}, 
  {"CodeLongDescription": "Iran, Islamic Republic Of", "CodeName": "IR"}, 
  {"CodeLongDescription": "Iraq", "CodeName": "IQ"}, 
  {"CodeLongDescription": "Ireland", "CodeName": "IE"}, 
  {"CodeLongDescription": "Isle of Man", "CodeName": "IM"}, 
  {"CodeLongDescription": "Israel", "CodeName": "IL"}, 
  {"CodeLongDescription": "Italy", "CodeName": "IT"}, 
  {"CodeLongDescription": "Jamaica", "CodeName": "JM"}, 
  {"CodeLongDescription": "Japan", "CodeName": "JP"}, 
  {"CodeLongDescription": "Jersey", "CodeName": "JE"}, 
  {"CodeLongDescription": "Jordan", "CodeName": "JO"}, 
  {"CodeLongDescription": "Kazakhstan", "CodeName": "KZ"}, 
  {"CodeLongDescription": "Kenya", "CodeName": "KE"}, 
  {"CodeLongDescription": "Kiribati", "CodeName": "KI"}, 
  {"CodeLongDescription": "Korea, Democratic People\"S Republic of", "CodeName": "KP"}, 
  {"CodeLongDescription": "Korea, Republic of", "CodeName": "KR"}, 
  {"CodeLongDescription": "Kuwait", "CodeName": "KW"}, 
  {"CodeLongDescription": "Kyrgyzstan", "CodeName": "KG"}, 
  {"CodeLongDescription": "Lao People\"S Democratic Republic", "CodeName": "LA"}, 
  {"CodeLongDescription": "Latvia", "CodeName": "LV"}, 
  {"CodeLongDescription": "Lebanon", "CodeName": "LB"}, 
  {"CodeLongDescription": "Lesotho", "CodeName": "LS"}, 
  {"CodeLongDescription": "Liberia", "CodeName": "LR"}, 
  {"CodeLongDescription": "Libyan Arab Jamahiriya", "CodeName": "LY"}, 
  {"CodeLongDescription": "Liechtenstein", "CodeName": "LI"}, 
  {"CodeLongDescription": "Lithuania", "CodeName": "LT"}, 
  {"CodeLongDescription": "Luxembourg", "CodeName": "LU"}, 
  {"CodeLongDescription": "Macao", "CodeName": "MO"}, 
  {"CodeLongDescription": "Macedonia, The Former Yugoslav Republic of", "CodeName": "MK"}, 
  {"CodeLongDescription": "Madagascar", "CodeName": "MG"}, 
  {"CodeLongDescription": "Malawi", "CodeName": "MW"}, 
  {"CodeLongDescription": "Malaysia", "CodeName": "MY"}, 
  {"CodeLongDescription": "Maldives", "CodeName": "MV"}, 
  {"CodeLongDescription": "Mali", "CodeName": "ML"}, 
  {"CodeLongDescription": "Malta", "CodeName": "MT"}, 
  {"CodeLongDescription": "Marshall Islands", "CodeName": "MH"}, 
  {"CodeLongDescription": "Martinique", "CodeName": "MQ"}, 
  {"CodeLongDescription": "Mauritania", "CodeName": "MR"}, 
  {"CodeLongDescription": "Mauritius", "CodeName": "MU"}, 
  {"CodeLongDescription": "Mayotte", "CodeName": "YT"}, 
  {"CodeLongDescription": "Mexico", "CodeName": "MX"}, 
  {"CodeLongDescription": "Micronesia, Federated States of", "CodeName": "FM"}, 
  {"CodeLongDescription": "Moldova, Republic of", "CodeName": "MD"}, 
  {"CodeLongDescription": "Monaco", "CodeName": "MC"}, 
  {"CodeLongDescription": "Mongolia", "CodeName": "MN"}, 
  {"CodeLongDescription": "Montserrat", "CodeName": "MS"}, 
  {"CodeLongDescription": "Morocco", "CodeName": "MA"}, 
  {"CodeLongDescription": "Mozambique", "CodeName": "MZ"}, 
  {"CodeLongDescription": "Myanmar", "CodeName": "MM"}, 
  {"CodeLongDescription": "Namibia", "CodeName": "NA"}, 
  {"CodeLongDescription": "Nauru", "CodeName": "NR"}, 
  {"CodeLongDescription": "Nepal", "CodeName": "NP"}, 
  {"CodeLongDescription": "Netherlands", "CodeName": "NL"}, 
  {"CodeLongDescription": "Netherlands Antilles", "CodeName": "AN"}, 
  {"CodeLongDescription": "New Caledonia", "CodeName": "NC"}, 
  {"CodeLongDescription": "New Zealand", "CodeName": "NZ"}, 
  {"CodeLongDescription": "Nicaragua", "CodeName": "NI"}, 
  {"CodeLongDescription": "Niger", "CodeName": "NE"}, 
  {"CodeLongDescription": "Nigeria", "CodeName": "NG"}, 
  {"CodeLongDescription": "Niue", "CodeName": "NU"}, 
  {"CodeLongDescription": "Norfolk Island", "CodeName": "NF"}, 
  {"CodeLongDescription": "Northern Mariana Islands", "CodeName": "MP"}, 
  {"CodeLongDescription": "Norway", "CodeName": "NO"}, 
  {"CodeLongDescription": "Oman", "CodeName": "OM"}, 
  {"CodeLongDescription": "Pakistan", "CodeName": "PK"}, 
  {"CodeLongDescription": "Palau", "CodeName": "PW"}, 
  {"CodeLongDescription": "Palestinian Territory, Occupied", "CodeName": "PS"}, 
  {"CodeLongDescription": "Panama", "CodeName": "PA"}, 
  {"CodeLongDescription": "Papua New Guinea", "CodeName": "PG"}, 
  {"CodeLongDescription": "Paraguay", "CodeName": "PY"}, 
  {"CodeLongDescription": "Peru", "CodeName": "PE"}, 
  {"CodeLongDescription": "Philippines", "CodeName": "PH"}, 
  {"CodeLongDescription": "Pitcairn", "CodeName": "PN"}, 
  {"CodeLongDescription": "Poland", "CodeName": "PL"}, 
  {"CodeLongDescription": "Portugal", "CodeName": "PT"}, 
  {"CodeLongDescription": "Puerto Rico", "CodeName": "PR"}, 
  {"CodeLongDescription": "Qatar", "CodeName": "QA"}, 
  {"CodeLongDescription": "Reunion", "CodeName": "RE"}, 
  {"CodeLongDescription": "Romania", "CodeName": "RO"}, 
  {"CodeLongDescription": "Russian Federation", "CodeName": "RU"}, 
  {"CodeLongDescription": "RWANDA", "CodeName": "RW"}, 
  {"CodeLongDescription": "Saint Helena", "CodeName": "SH"}, 
  {"CodeLongDescription": "Saint Kitts and Nevis", "CodeName": "KN"}, 
  {"CodeLongDescription": "Saint Lucia", "CodeName": "LC"}, 
  {"CodeLongDescription": "Saint Pierre and Miquelon", "CodeName": "PM"}, 
  {"CodeLongDescription": "Saint Vincent and the Grenadines", "CodeName": "VC"}, 
  {"CodeLongDescription": "Samoa", "CodeName": "WS"}, 
  {"CodeLongDescription": "San Marino", "CodeName": "SM"}, 
  {"CodeLongDescription": "Sao Tome and Principe", "CodeName": "ST"}, 
  {"CodeLongDescription": "Saudi Arabia", "CodeName": "SA"}, 
  {"CodeLongDescription": "Senegal", "CodeName": "SN"}, 
  {"CodeLongDescription": "Serbia and Montenegro", "CodeName": "CS"}, 
  {"CodeLongDescription": "Seychelles", "CodeName": "SC"}, 
  {"CodeLongDescription": "Sierra Leone", "CodeName": "SL"}, 
  {"CodeLongDescription": "Singapore", "CodeName": "SG"}, 
  {"CodeLongDescription": "Slovakia", "CodeName": "SK"}, 
  {"CodeLongDescription": "Slovenia", "CodeName": "SI"}, 
  {"CodeLongDescription": "Solomon Islands", "CodeName": "SB"}, 
  {"CodeLongDescription": "Somalia", "CodeName": "SO"}, 
  {"CodeLongDescription": "South Africa", "CodeName": "ZA"}, 
  {"CodeLongDescription": "South Georgia and the South Sandwich Islands", "CodeName": "GS"}, 
  {"CodeLongDescription": "Spain", "CodeName": "ES"}, 
  {"CodeLongDescription": "Sri Lanka", "CodeName": "LK"}, 
  {"CodeLongDescription": "Sudan", "CodeName": "SD"}, 
  {"CodeLongDescription": "Suriname", "CodeName": "SR"}, 
  {"CodeLongDescription": "Svalbard and Jan Mayen", "CodeName": "SJ"}, 
  {"CodeLongDescription": "Swaziland", "CodeName": "SZ"}, 
  {"CodeLongDescription": "Sweden", "CodeName": "SE"}, 
  {"CodeLongDescription": "Switzerland", "CodeName": "CH"}, 
  {"CodeLongDescription": "Syrian Arab Republic", "CodeName": "SY"}, 
  {"CodeLongDescription": "Taiwan, Province of China", "CodeName": "TW"}, 
  {"CodeLongDescription": "Tajikistan", "CodeName": "TJ"}, 
  {"CodeLongDescription": "Tanzania, United Republic of", "CodeName": "TZ"}, 
  {"CodeLongDescription": "Thailand", "CodeName": "TH"}, 
  {"CodeLongDescription": "Timor-Leste", "CodeName": "TL"}, 
  {"CodeLongDescription": "Togo", "CodeName": "TG"}, 
  {"CodeLongDescription": "Tokelau", "CodeName": "TK"}, 
  {"CodeLongDescription": "Tonga", "CodeName": "TO"}, 
  {"CodeLongDescription": "Trinidad and Tobago", "CodeName": "TT"}, 
  {"CodeLongDescription": "Tunisia", "CodeName": "TN"}, 
  {"CodeLongDescription": "Turkey", "CodeName": "TR"}, 
  {"CodeLongDescription": "Turkmenistan", "CodeName": "TM"}, 
  {"CodeLongDescription": "Turks and Caicos Islands", "CodeName": "TC"}, 
  {"CodeLongDescription": "Tuvalu", "CodeName": "TV"}, 
  {"CodeLongDescription": "Uganda", "CodeName": "UG"}, 
  {"CodeLongDescription": "Ukraine", "CodeName": "UA"}, 
  {"CodeLongDescription": "United Arab Emirates", "CodeName": "AE"}, 
  {"CodeLongDescription": "United Kingdom", "CodeName": "GB"}, 
  {"CodeLongDescription": "United States", "CodeName": "US"}, 
  {"CodeLongDescription": "United States Minor Outlying Islands", "CodeName": "UM"}, 
  {"CodeLongDescription": "Uruguay", "CodeName": "UY"}, 
  {"CodeLongDescription": "Uzbekistan", "CodeName": "UZ"}, 
  {"CodeLongDescription": "Vanuatu", "CodeName": "VU"}, 
  {"CodeLongDescription": "Venezuela", "CodeName": "VE"}, 
  {"CodeLongDescription": "Viet Nam", "CodeName": "VN"}, 
  {"CodeLongDescription": "Virgin Islands, British", "CodeName": "VG"}, 
  {"CodeLongDescription": "Virgin Islands, U.S.", "CodeName": "VI"}, 
  {"CodeLongDescription": "Wallis and Futuna", "CodeName": "WF"}, 
  {"CodeLongDescription": "Western Sahara", "CodeName": "EH"}, 
  {"CodeLongDescription": "Yemen", "CodeName": "YE"}, 
  {"CodeLongDescription": "Zambia", "CodeName": "ZM"}, 
  {"CodeLongDescription": "Zimbabwe", "CodeName": "ZW"}]}